{
  "$schema": "http://json-schema.org/draft-04/schema#",
  "title": "Movie schema",
  "type": "object",
  "properties": {
    "rank": {"type": "number"},
    "movie_title": {"type": "string"}
  },
  "additionalProperties": false,
  "required": ["rank","movie_title"]
}
